[
  {
    "name": "Alertness",
    "type": "edge",
    "data": {
      "description": "<p>See SWADE p.37</p>",
      "notes": "",
      "isArcaneBackground": false,
      "requirements": {
        "value": "Novice"
      }
    }
  },
  {
    "name": "Ambidextrous",
    "type": "edge",
    "data": {
      "description": "<p>See SWADE p.37</p>",
      "notes": "",
      "isArcaneBackground": false,
      "requirements": {
        "value": "Novice, Agility d8+"
      }
    }
  },
  {
    "name": "Arcane Background",
    "type": "edge",
    "data": {
      "description": "<p>See SWADE p.37</p>",
      "notes": "",
      "isArcaneBackground": true,
      "requirements": {
        "value": "Novice"
      }
    }
  },
  {
    "name": "Arcane Resistance",
    "type": "edge",
    "data": {
      "description": "<p>See SWADE p.37</p>",
      "notes": "",
      "isArcaneBackground": false,
      "requirements": {
        "value": "Novice, Spirit d8+"
      }
    }
  },
  {
    "name": "Improved Arcane Resistance",
    "type": "edge",
    "data": {
      "description": "<p>See SWADE p.37</p>",
      "notes": "",
      "isArcaneBackground": false,
      "requirements": {
        "value": "Novice, Arcane Resistance"
      }
    }
  },
  {
    "name": "Aristocrat",
    "type": "edge",
    "data": {
      "description": "<p>See SWADE p.37</p>",
      "notes": "",
      "isArcaneBackground": false,
      "requirements": {
        "value": "Novice"
      }
    }
  },
  {
    "name": "Attractive",
    "type": "edge",
    "data": {
      "description": "<p>See SWADE p.38</p>",
      "notes": "",
      "isArcaneBackground": false,
      "requirements": {
        "value": "Novice, Vigor d6+"
      }
    }
  },
  {
    "name": "Very Attractive",
    "type": "edge",
    "data": {
      "description": "<p>See SWADE p.38</p>",
      "notes": "",
      "isArcaneBackground": false,
      "requirements": {
        "value": "Novice, Attractive"
      }
    }
  },
  {
    "name": "Berserk",
    "type": "edge",
    "data": {
      "description": "<p>See SWADE p.38</p>",
      "notes": "",
      "isArcaneBackground": false,
      "requirements": {
        "value": "Novice"
      }
    }
  },
  {
    "name": "Brave",
    "type": "edge",
    "data": {
      "description": "<p>See SWADE p.38</p>",
      "notes": "",
      "isArcaneBackground": false,
      "requirements": {
        "value": "Novice, Spirit d6+"
      }
    }
  },
  {
    "name": "Brawny",
    "type": "edge",
    "data": {
      "description": "<p>See SWADE p.38</p>",
      "notes": "",
      "isArcaneBackground": false,
      "requirements": {
        "value": "Novice, Strength d6+, Vigor d6+"
      }
    }
  },
  {
    "name": "Brute",
    "type": "edge",
    "data": {
      "description": "<p>See SWADE p.38</p>",
      "notes": "",
      "isArcaneBackground": false,
      "requirements": {
        "value": "Novice, Strength d6+, Vigor d6+"
      }
    }
  },
  {
    "name": "Charismatic",
    "type": "edge",
    "data": {
      "description": "<p>See SWADE p.38</p>",
      "notes": "",
      "isArcaneBackground": false,
      "requirements": {
        "value": "Novice, Spirit d8+"
      }
    }
  },
  {
    "name": "Elan",
    "type": "edge",
    "data": {
      "description": "<p>See SWADE p.39</p>",
      "notes": "",
      "isArcaneBackground": false,
      "requirements": {
        "value": "Novice, Spirit d8+"
      }
    }
  },
  {
    "name": "Fame",
    "type": "edge",
    "data": {
      "description": "<p>See SWADE p.39</p>",
      "notes": "",
      "isArcaneBackground": false,
      "requirements": {
        "value": "Novice"
      }
    }
  },
  {
    "name": "Famous",
    "type": "edge",
    "data": {
      "description": "<p>See SWADE p.39</p>",
      "notes": "",
      "isArcaneBackground": false,
      "requirements": {
        "value": "Seasoned, Fame"
      }
    }
  },
  {
    "name": "Fast Healer",
    "type": "edge",
    "data": {
      "description": "<p>See SWADE p.39</p>",
      "notes": "",
      "isArcaneBackground": false,
      "requirements": {
        "value": "Novice, Vigor d8+"
      }
    }
  },
  {
    "name": "Fleet-Footed",
    "type": "edge",
    "data": {
      "description": "<p>See SWADE p.39</p>",
      "notes": "",
      "isArcaneBackground": false,
      "requirements": {
        "value": "Novice, Agility d6+"
      }
    }
  },
  {
    "name": "Linguist",
    "type": "edge",
    "data": {
      "description": "<p>See SWADE p.40</p>",
      "notes": "",
      "isArcaneBackground": false,
      "requirements": {
        "value": "Novice, Smarts d6+"
      }
    }
  },
  {
    "name": "Luck",
    "type": "edge",
    "data": {
      "description": "<p>See SWADE p.40</p>",
      "notes": "",
      "isArcaneBackground": false,
      "requirements": {
        "value": "Novice"
      }
    }
  },
  {
    "name": "Great Luck",
    "type": "edge",
    "data": {
      "description": "<p>See SWADE p.40</p>",
      "notes": "",
      "isArcaneBackground": false,
      "requirements": {
        "value": "Novice, Luck"
      }
    }
  },
  {
    "name": "Quick",
    "type": "edge",
    "data": {
      "description": "<p>See SWADE p.40</p>",
      "notes": "",
      "isArcaneBackground": false,
      "requirements": {
        "value": "Novice, Agility d8+"
      }
    }
  },
  {
    "name": "Rich",
    "type": "edge",
    "data": {
      "description": "<p>See SWADE p.40</p>",
      "notes": "",
      "isArcaneBackground": false,
      "requirements": {
        "value": "Novice"
      }
    }
  },
  {
    "name": "Filthy Rich",
    "type": "edge",
    "data": {
      "description": "<p>See SWADE p.40</p>",
      "notes": "",
      "isArcaneBackground": false,
      "requirements": {
        "value": "Novice, Rich"
      }
    }
  },
  {
    "name": "Block",
    "type": "edge",
    "data": {
      "description": "<p>See SWADE p.40</p>",
      "notes": "",
      "isArcaneBackground": false,
      "requirements": {
        "value": "Seasoned, Fighting d8+"
      }
    }
  },
  {
    "name": "Improved Block",
    "type": "edge",
    "data": {
      "description": "<p>See SWADE p.40</p>",
      "notes": "",
      "isArcaneBackground": false,
      "requirements": {
        "value": "Veteran, Block"
      }
    }
  },
  {
    "name": "Brawler",
    "type": "edge",
    "data": {
      "description": "<p>See SWADE p.41</p>",
      "notes": "",
      "isArcaneBackground": false,
      "requirements": {
        "value": "Novice, Strength d8+, Vigor d8+"
      }
    }
  },
  {
    "name": "Bruiser",
    "type": "edge",
    "data": {
      "description": "<p>See SWADE p.41</p>",
      "notes": "",
      "isArcaneBackground": false,
      "requirements": {
        "value": "Seasoned, Brawler"
      }
    }
  },
  {
    "name": "Calculating",
    "type": "edge",
    "data": {
      "description": "<p>See SWADE p.41</p>",
      "notes": "",
      "isArcaneBackground": false,
      "requirements": {
        "value": "Novice, Smarts d8+"
      }
    }
  },
  {
    "name": "Combat Reflexes",
    "type": "edge",
    "data": {
      "description": "<p>See SWADE p.41</p>",
      "notes": "",
      "isArcaneBackground": false,
      "requirements": {
        "value": "Seasoned"
      }
    }
  },
  {
    "name": "Counterattack",
    "type": "edge",
    "data": {
      "description": "<p>See SWADE p.41</p>",
      "notes": "",
      "isArcaneBackground": false,
      "requirements": {
        "value": "Seasoned, Fighting d8+"
      }
    }
  },
  {
    "name": "Improved Counterattack",
    "type": "edge",
    "data": {
      "description": "<p>See SWADE p.41</p>",
      "notes": "",
      "isArcaneBackground": false,
      "requirements": {
        "value": "Veteran, Counterattack"
      }
    }
  },
  {
    "name": "Dead Shot",
    "type": "edge",
    "data": {
      "description": "<p>See SWADE p.41</p>",
      "notes": "",
      "isArcaneBackground": false,
      "requirements": {
        "value": "Wild Card, Novice, Athletics or Shooting d8+"
      }
    }
  },
  {
    "name": "Dodge",
    "type": "edge",
    "data": {
      "description": "<p>See SWADE p.41</p>",
      "notes": "",
      "isArcaneBackground": false,
      "requirements": {
        "value": "Seasoned, Agility d8+"
      }
    }
  },
  {
    "name": "Improved Dodge",
    "type": "edge",
    "data": {
      "description": "<p>See SWADE p.41</p>",
      "notes": "",
      "isArcaneBackground": false,
      "requirements": {
        "value": "Seasoned, Dodge"
      }
    }
  },
  {
    "name": "Double Tap",
    "type": "edge",
    "data": {
      "description": "<p>See SWADE p.41</p>",
      "notes": "",
      "isArcaneBackground": false,
      "requirements": {
        "value": "Seasoned, Shooting d6+"
      }
    }
  },
  {
    "name": "Extraction",
    "type": "edge",
    "data": {
      "description": "<p>See SWADE p.41</p>",
      "notes": "",
      "isArcaneBackground": false,
      "requirements": {
        "value": "Novice, Agility d8+"
      }
    }
  },
  {
    "name": "Improved Extraction",
    "type": "edge",
    "data": {
      "description": "<p>See SWADE p.42</p>",
      "notes": "",
      "isArcaneBackground": false,
      "requirements": {
        "value": "Seasoned, Extraction"
      }
    }
  },
  {
    "name": "Feint",
    "type": "edge",
    "data": {
      "description": "<p>See SWADE p.42</p>",
      "notes": "",
      "isArcaneBackground": false,
      "requirements": {
        "value": "Novice, Fighting d8+"
      }
    }
  },
  {
    "name": "First Strike",
    "type": "edge",
    "data": {
      "description": "<p>See SWADE p.42</p>",
      "notes": "",
      "isArcaneBackground": false,
      "requirements": {
        "value": "Novice, Agility d8+"
      }
    }
  },
  {
    "name": "Improved First Strike",
    "type": "edge",
    "data": {
      "description": "<p>See SWADE p.42</p>",
      "notes": "",
      "isArcaneBackground": false,
      "requirements": {
        "value": "Heroic, First Strike"
      }
    }
  },
  {
    "name": "Free Runner",
    "type": "edge",
    "data": {
      "description": "<p>See SWADE p.42</p>",
      "notes": "",
      "isArcaneBackground": false,
      "requirements": {
        "value": "Novice, Agility d8+, Athletics d6+"
      }
    }
  },
  {
    "name": "Frenzy",
    "type": "edge",
    "data": {
      "description": "<p>See SWADE p.42</p>",
      "notes": "",
      "isArcaneBackground": false,
      "requirements": {
        "value": "Seasoned, Fighting d8+"
      }
    }
  },
  {
    "name": "Improved Frenzy",
    "type": "edge",
    "data": {
      "description": "<p>See SWADE p.42</p>",
      "notes": "",
      "isArcaneBackground": false,
      "requirements": {
        "value": "Veteran, Frenzy"
      }
    }
  },
  {
    "name": "Giant Killer",
    "type": "edge",
    "data": {
      "description": "<p>See SWADE p.42</p>",
      "notes": "",
      "isArcaneBackground": false,
      "requirements": {
        "value": "Veteran"
      }
    }
  },
  {
    "name": "Hard To Kill",
    "type": "edge",
    "data": {
      "description": "<p>See SWADE p.42</p>",
      "notes": "",
      "isArcaneBackground": false,
      "requirements": {
        "value": "Novice, Spirit d8+"
      }
    }
  },
  {
    "name": "Harder To Kill",
    "type": "edge",
    "data": {
      "description": "<p>See SWADE p.42</p>",
      "notes": "",
      "isArcaneBackground": false,
      "requirements": {
        "value": "Veteran, Hard to Kill"
      }
    }
  },
  {
    "name": "Improvisational Fighter",
    "type": "edge",
    "data": {
      "description": "<p>See SWADE p.42</p>",
      "notes": "",
      "isArcaneBackground": false,
      "requirements": {
        "value": "Seasoned, Smarts d6+"
      }
    }
  },
  {
    "name": "Iron Jaw",
    "type": "edge",
    "data": {
      "description": "<p>See SWADE p.42</p>",
      "notes": "",
      "isArcaneBackground": false,
      "requirements": {
        "value": "Novice, Vigor d8+"
      }
    }
  },
  {
    "name": "Killer Instinct",
    "type": "edge",
    "data": {
      "description": "<p>See SWADE p.43</p>",
      "notes": "",
      "isArcaneBackground": false,
      "requirements": {
        "value": "Seasoned"
      }
    }
  },
  {
    "name": "Level Headed",
    "type": "edge",
    "data": {
      "description": "<p>See SWADE p.43</p>",
      "notes": "",
      "isArcaneBackground": false,
      "requirements": {
        "value": "Seasoned, Smarts d8+"
      }
    }
  },
  {
    "name": "Improved Level Headed",
    "type": "edge",
    "data": {
      "description": "<p>See SWADE p.43</p>",
      "notes": "",
      "isArcaneBackground": false,
      "requirements": {
        "value": "Seasoned, Level Headed"
      }
    }
  },
  {
    "name": "Marksman",
    "type": "edge",
    "data": {
      "description": "<p>See SWADE p.43</p>",
      "notes": "",
      "isArcaneBackground": false,
      "requirements": {
        "value": "Seasoned, Athletics d8+ or Shooting d8+"
      }
    }
  },
  {
    "name": "Martial Artist",
    "type": "edge",
    "data": {
      "description": "<p>See SWADE p.43</p>",
      "notes": "",
      "isArcaneBackground": false,
      "requirements": {
        "value": "Novice, Fighting d6+"
      }
    }
  },
  {
    "name": "Martial Warrior",
    "type": "edge",
    "data": {
      "description": "<p>See SWADE p.43</p>",
      "notes": "",
      "isArcaneBackground": false,
      "requirements": {
        "value": "Seasoned, Martial Artist"
      }
    }
  },
  {
    "name": "Mighty Blow",
    "type": "edge",
    "data": {
      "description": "<p>See SWADE p.43</p>",
      "notes": "",
      "isArcaneBackground": false,
      "requirements": {
        "value": "Wild Card, Novice, Fighting d8+"
      }
    }
  },
  {
    "name": "Nerves of Steel",
    "type": "edge",
    "data": {
      "description": "<p>See SWADE p.43</p>",
      "notes": "",
      "isArcaneBackground": false,
      "requirements": {
        "value": "Novice, Vigor d8+"
      }
    }
  },
  {
    "name": "Improved Nerves of Steel",
    "type": "edge",
    "data": {
      "description": "<p>See SWADE p.43</p>",
      "notes": "",
      "isArcaneBackground": false,
      "requirements": {
        "value": "Novice, Nerves of Steel"
      }
    }
  },
  {
    "name": "No Mercy",
    "type": "edge",
    "data": {
      "description": "<p>See SWADE p.43</p>",
      "notes": "",
      "isArcaneBackground": false,
      "requirements": {
        "value": "Seasoned"
      }
    }
  },
  {
    "name": "Rapid Fire",
    "type": "edge",
    "data": {
      "description": "<p>See SWADE p.43</p>",
      "notes": "",
      "isArcaneBackground": false,
      "requirements": {
        "value": "Seasoned, Shooting d6+"
      }
    }
  },
  {
    "name": "Improved Rapid Fire",
    "type": "edge",
    "data": {
      "description": "<p>See SWADE p.43</p>",
      "notes": "",
      "isArcaneBackground": false,
      "requirements": {
        "value": "Veteran, Rapid Fire"
      }
    }
  },
  {
    "name": "Rock and Roll!",
    "type": "edge",
    "data": {
      "description": "<p>See SWADE p.44</p>",
      "notes": "",
      "isArcaneBackground": false,
      "requirements": {
        "value": "Seasoned, Shooting d8+"
      }
    }
  },
  {
    "name": "Steady Hands",
    "type": "edge",
    "data": {
      "description": "<p>See SWADE p.44</p>",
      "notes": "",
      "isArcaneBackground": false,
      "requirements": {
        "value": "Novice, Agility d8+"
      }
    }
  },
  {
    "name": "Sweep",
    "type": "edge",
    "data": {
      "description": "<p>See SWADE p.44</p>",
      "notes": "",
      "isArcaneBackground": false,
      "requirements": {
        "value": "Novice, Strength d8+, Fighting d8+"
      }
    }
  },
  {
    "name": "Improved Sweep",
    "type": "edge",
    "data": {
      "description": "<p>See SWADE p.44</p>",
      "notes": "",
      "isArcaneBackground": false,
      "requirements": {
        "value": "Veteran, Sweep"
      }
    }
  },
  {
    "name": "Trademark Weapon",
    "type": "edge",
    "data": {
      "description": "<p>See SWADE p.44</p>",
      "notes": "",
      "isArcaneBackground": false,
      "requirements": {
        "value": "Novice, skill with chosen weapon of d8+"
      }
    }
  },
  {
    "name": "Improved Trademark Weapon",
    "type": "edge",
    "data": {
      "description": "<p>See SWADE p.44</p>",
      "notes": "",
      "isArcaneBackground": false,
      "requirements": {
        "value": "Seasoned, Trademark Weapon"
      }
    }
  },
  {
    "name": "Two-Fisted",
    "type": "edge",
    "data": {
      "description": "<p>See SWADE p.44</p>",
      "notes": "",
      "isArcaneBackground": false,
      "requirements": {
        "value": "Novice, Agility d8+"
      }
    }
  },
  {
    "name": "Two-Gun Kid",
    "type": "edge",
    "data": {
      "description": "<p>See SWADE p.44</p>",
      "notes": "",
      "isArcaneBackground": false,
      "requirements": {
        "value": "Novice, Agility d8+"
      }
    }
  },
  {
    "name": "Command",
    "type": "edge",
    "data": {
      "description": "<p>See SWADE p.45</p>",
      "notes": "",
      "isArcaneBackground": false,
      "requirements": {
        "value": "Novice, Smarts d6+"
      }
    }
  },
  {
    "name": "Command Presence",
    "type": "edge",
    "data": {
      "description": "<p>See SWADE p.45</p>",
      "notes": "",
      "isArcaneBackground": false,
      "requirements": {
        "value": "Seasoned, Command"
      }
    }
  },
  {
    "name": "Fervor",
    "type": "edge",
    "data": {
      "description": "<p>See SWADE p.45</p>",
      "notes": "",
      "isArcaneBackground": false,
      "requirements": {
        "value": "Veteran, Spirit d8+, Command"
      }
    }
  },
  {
    "name": "Hold The Line!",
    "type": "edge",
    "data": {
      "description": "<p>See SWADE p.45</p>",
      "notes": "",
      "isArcaneBackground": false,
      "requirements": {
        "value": "Seasoned, Smarts d8+, Command"
      }
    }
  },
  {
    "name": "Inspire",
    "type": "edge",
    "data": {
      "description": "<p>See SWADE p.45</p>",
      "notes": "",
      "isArcaneBackground": false,
      "requirements": {
        "value": "Seasoned, Command"
      }
    }
  },
  {
    "name": "Natural Leader",
    "type": "edge",
    "data": {
      "description": "<p>See SWADE p.45</p>",
      "notes": "",
      "isArcaneBackground": false,
      "requirements": {
        "value": "Seasoned, Spirit d8+, Command"
      }
    }
  },
  {
    "name": "Tactician",
    "type": "edge",
    "data": {
      "description": "<p>See SWADE p.45</p>",
      "notes": "",
      "isArcaneBackground": false,
      "requirements": {
        "value": "Seasoned, Smarts d8+ Command, Battle d6+"
      }
    }
  },
  {
    "name": "Master Tactician",
    "type": "edge",
    "data": {
      "description": "<p>See SWADE p.45</p>",
      "notes": "",
      "isArcaneBackground": false,
      "requirements": {
        "value": "Veteran, Tactician"
      }
    }
  },
  {
    "name": "Artificer",
    "type": "edge",
    "data": {
      "description": "<p>See SWADE p.45</p>",
      "notes": "",
      "isArcaneBackground": false,
      "requirements": {
        "value": "Seasoned, Arcane Background (Any)"
      }
    }
  },
  {
    "name": "Channeling",
    "type": "edge",
    "data": {
      "description": "<p>See SWADE p.46</p>",
      "notes": "",
      "isArcaneBackground": false,
      "requirements": {
        "value": "Seasoned, Arcane Background (Any)"
      }
    }
  },
  {
    "name": "Concentration",
    "type": "edge",
    "data": {
      "description": "<p>See SWADE p.46</p>",
      "notes": "",
      "isArcaneBackground": false,
      "requirements": {
        "value": "Seasoned, Arcane Background (Any)"
      }
    }
  },
  {
    "name": "Extra Effort",
    "type": "edge",
    "data": {
      "description": "<p>See SWADE p.46</p>",
      "notes": "",
      "isArcaneBackground": false,
      "requirements": {
        "value": "Seasoned, Arcane Background (Gifted)"
      }
    }
  },
  {
    "name": "Gadgeteer",
    "type": "edge",
    "data": {
      "description": "<p>See SWADE p.46</p>",
      "notes": "",
      "isArcaneBackground": false,
      "requirements": {
        "value": "Seasoned, Arcane Background (Weird Science), Weird Science d6+"
      }
    }
  },
  {
    "name": "Holy/Unholy Warrior",
    "type": "edge",
    "data": {
      "description": "<p>See SWADE p.46</p>",
      "notes": "",
      "isArcaneBackground": false,
      "requirements": {
        "value": "Seasoned, Arcane Background (Miracles), Faith d6+"
      }
    }
  },
  {
    "name": "Mentalist",
    "type": "edge",
    "data": {
      "description": "<p>See SWADE p.46</p>",
      "notes": "",
      "isArcaneBackground": false,
      "requirements": {
        "value": "Seasoned, Arcane Background (Psionics), Psionics d6+"
      }
    }
  },
  {
    "name": "New Powers",
    "type": "edge",
    "data": {
      "description": "<p>See SWADE p.47</p>",
      "notes": "",
      "isArcaneBackground": false,
      "requirements": {
        "value": "Novice, Arcane Background (Any)"
      }
    }
  },
  {
    "name": "Power Points",
    "type": "edge",
    "data": {
      "description": "<p>See SWADE p.47</p>",
      "notes": "",
      "isArcaneBackground": false,
      "requirements": {
        "value": "Novice, Arcane Background (Any)"
      }
    }
  },
  {
    "name": "Power Surge",
    "type": "edge",
    "data": {
      "description": "<p>See SWADE p.47</p>",
      "notes": "",
      "isArcaneBackground": false,
      "requirements": {
        "value": "Wild Card, Novice, Arcane, Background (Any), arcane skill d8+"
      }
    }
  },
  {
    "name": "Rapid Recharge",
    "type": "edge",
    "data": {
      "description": "<p>See SWADE p.47</p>",
      "notes": "",
      "isArcaneBackground": false,
      "requirements": {
        "value": "Seasoned, Spirit d6+, Arcane Background (Any)"
      }
    }
  },
  {
    "name": "Improved Rapid Recharge",
    "type": "edge",
    "data": {
      "description": "<p>See SWADE p.47</p>",
      "notes": "",
      "isArcaneBackground": false,
      "requirements": {
        "value": "Veteran, Rapid Recharge"
      }
    }
  },
  {
    "name": "Soul Drain",
    "type": "edge",
    "data": {
      "description": "<p>See SWADE p.47</p>",
      "notes": "",
      "isArcaneBackground": false,
      "requirements": {
        "value": "Seasoned, Arcane Background (Any), arcane skill d10+"
      }
    }
  },
  {
    "name": "Wizard",
    "type": "edge",
    "data": {
      "description": "<p>See SWADE p.47</p>",
      "notes": "",
      "isArcaneBackground": false,
      "requirements": {
        "value": "Seasoned, Arcane Background (Magic), Spellcasting d6+"
      }
    }
  },
  {
    "name": "Ace",
    "type": "edge",
    "data": {
      "description": "<p>See SWADE p.47</p>",
      "notes": "",
      "isArcaneBackground": false,
      "requirements": {
        "value": "Novice, Agility d8+"
      }
    }
  },
  {
    "name": "Acrobat",
    "type": "edge",
    "data": {
      "description": "<p>See SWADE p.48</p>",
      "notes": "",
      "isArcaneBackground": false,
      "requirements": {
        "value": "Novice, Agility d8+, Athletics d8+"
      }
    }
  },
  {
    "name": "Combat Acrobat",
    "type": "edge",
    "data": {
      "description": "<p>See SWADE p.48</p>",
      "notes": "",
      "isArcaneBackground": false,
      "requirements": {
        "value": "Seasoned, Acrobat"
      }
    }
  },
  {
    "name": "Assasin",
    "type": "edge",
    "data": {
      "description": "<p>See SWADE p.48</p>",
      "notes": "",
      "isArcaneBackground": false,
      "requirements": {
        "value": "Novice, Agility d8+, Fighting d6+, Stealth d8+"
      }
    }
  },
  {
    "name": "Investigator",
    "type": "edge",
    "data": {
      "description": "<p>See SWADE p.48</p>",
      "notes": "",
      "isArcaneBackground": false,
      "requirements": {
        "value": "Novice, Smarts d8+, Research d8+"
      }
    }
  },
  {
    "name": "Jack-of-all-Trades",
    "type": "edge",
    "data": {
      "description": "<p>See SWADE p.48</p>",
      "notes": "",
      "isArcaneBackground": false,
      "requirements": {
        "value": "Novice, Smarts d10+"
      }
    }
  },
  {
    "name": "McGyver",
    "type": "edge",
    "data": {
      "description": "<p>See SWADE p.49</p>",
      "notes": "",
      "isArcaneBackground": false,
      "requirements": {
        "value": "Novice, Smarts d6+, Notice d8+, Repair d6+"
      }
    }
  },
  {
    "name": "Mr. Fix It",
    "type": "edge",
    "data": {
      "description": "<p>See SWADE p.49</p>",
      "notes": "",
      "isArcaneBackground": false,
      "requirements": {
        "value": "Novice, Repair d8+"
      }
    }
  },
  {
    "name": "Scholar",
    "type": "edge",
    "data": {
      "description": "<p>See SWADE p.49</p>",
      "notes": "",
      "isArcaneBackground": false,
      "requirements": {
        "value": "Novice, Research d8+"
      }
    }
  },
  {
    "name": "Soldier",
    "type": "edge",
    "data": {
      "description": "<p>See SWADE p.49</p>",
      "notes": "",
      "isArcaneBackground": false,
      "requirements": {
        "value": "Novice, Strength d6+, Vigor d6+"
      }
    }
  },
  {
    "name": "Thief",
    "type": "edge",
    "data": {
      "description": "<p>See SWADE p.49</p>",
      "notes": "",
      "isArcaneBackground": false,
      "requirements": {
        "value": "Novice, Agility d8+, Stealth d6+, Thievery d6+"
      }
    }
  },
  {
    "name": "Woodsman",
    "type": "edge",
    "data": {
      "description": "<p>See SWADE p.50</p>",
      "notes": "",
      "isArcaneBackground": false,
      "requirements": {
        "value": "Novice, Spirit d6+, Survival d8+"
      }
    }
  },
  {
    "name": "Bolster",
    "type": "edge",
    "data": {
      "description": "<p>See SWADE p.50</p>",
      "notes": "",
      "isArcaneBackground": false,
      "requirements": {
        "value": "Novice, Spirit d8+"
      }
    }
  },
  {
    "name": "Common Bond",
    "type": "edge",
    "data": {
      "description": "<p>See SWADE p.50</p>",
      "notes": "",
      "isArcaneBackground": false,
      "requirements": {
        "value": "Wild Card, Novice, Spirit d8+"
      }
    }
  },
  {
    "name": "Connections",
    "type": "edge",
    "data": {
      "description": "<p>See SWADE p.50</p>",
      "notes": "",
      "isArcaneBackground": false,
      "requirements": {
        "value": "Novice"
      }
    }
  },
  {
    "name": "Humiliate",
    "type": "edge",
    "data": {
      "description": "<p>See SWADE p.50</p>",
      "notes": "",
      "isArcaneBackground": false,
      "requirements": {
        "value": "Novice, Taunt d8+"
      }
    }
  },
  {
    "name": "Menacing",
    "type": "edge",
    "data": {
      "description": "<p>See SWADE p.50</p>",
      "notes": "",
      "isArcaneBackground": false,
      "requirements": {
        "value": "Novice, any one of Bloodthirsty, Mean, Ruthless, or Ugly"
      }
    }
  },
  {
    "name": "Provoke",
    "type": "edge",
    "data": {
      "description": "<p>See SWADE p.50</p>",
      "notes": "",
      "isArcaneBackground": false,
      "requirements": {
        "value": "Novice, Taunt d6+"
      }
    }
  },
  {
    "name": "Rabble-Rouser",
    "type": "edge",
    "data": {
      "description": "<p>See SWADE p.50</p>",
      "notes": "",
      "isArcaneBackground": false,
      "requirements": {
        "value": "Seasoned, Spirit d8+"
      }
    }
  },
  {
    "name": "Reliable",
    "type": "edge",
    "data": {
      "description": "<p>See SWADE p.51</p>",
      "notes": "",
      "isArcaneBackground": false,
      "requirements": {
        "value": "Novice, Spirit d8+"
      }
    }
  },
  {
    "name": "Retort",
    "type": "edge",
    "data": {
      "description": "<p>See SWADE p.51</p>",
      "notes": "",
      "isArcaneBackground": false,
      "requirements": {
        "value": "Novice, Taunt d6+"
      }
    }
  },
  {
    "name": "Streetwise",
    "type": "edge",
    "data": {
      "description": "<p>See SWADE p.51</p>",
      "notes": "",
      "isArcaneBackground": false,
      "requirements": {
        "value": "Novice, Smarts d6+"
      }
    }
  },
  {
    "name": "Strong Willed",
    "type": "edge",
    "data": {
      "description": "<p>See SWADE p.51</p>",
      "notes": "",
      "isArcaneBackground": false,
      "requirements": {
        "value": "Novice, Spirit d8+"
      }
    }
  },
  {
    "name": "Iron Will",
    "type": "edge",
    "data": {
      "description": "<p>See SWADE p.51</p>",
      "notes": "",
      "isArcaneBackground": false,
      "requirements": {
        "value": "Seasoned, Brave, Strong Willed"
      }
    }
  },
  {
    "name": "Work The Room",
    "type": "edge",
    "data": {
      "description": "<p>See SWADE p.51</p>",
      "notes": "",
      "isArcaneBackground": false,
      "requirements": {
        "value": "Novice, Spirit d8+"
      }
    }
  },
  {
    "name": "Work The Crowd",
    "type": "edge",
    "data": {
      "description": "<p>See SWADE p.51</p>",
      "notes": "",
      "isArcaneBackground": false,
      "requirements": {
        "value": "Seasoned, Work the Room"
      }
    }
  },
  {
    "name": "Beast Bond",
    "type": "edge",
    "data": {
      "description": "<p>See SWADE p.51</p>",
      "notes": "",
      "isArcaneBackground": false,
      "requirements": {
        "value": "Novice"
      }
    }
  },
  {
    "name": "Beast Master",
    "type": "edge",
    "data": {
      "description": "<p>See SWADE p.51</p>",
      "notes": "",
      "isArcaneBackground": false,
      "requirements": {
        "value": "Novice, Spirit d8+"
      }
    }
  },
  {
    "name": "Champion",
    "type": "edge",
    "data": {
      "description": "<p>See SWADE p.52</p>",
      "notes": "",
      "isArcaneBackground": false,
      "requirements": {
        "value": "Novice, Spirit d8+, Fighting d6+"
      }
    }
  },
  {
    "name": "Chi",
    "type": "edge",
    "data": {
      "description": "<p>See SWADE p.52</p>",
      "notes": "",
      "isArcaneBackground": false,
      "requirements": {
        "value": "Veteran, Martial Warrior"
      }
    }
  },
  {
    "name": "Danger Sense",
    "type": "edge",
    "data": {
      "description": "<p>See SWADE p.52</p>",
      "notes": "",
      "isArcaneBackground": false,
      "requirements": {
        "value": "Novice"
      }
    }
  },
  {
    "name": "Healer",
    "type": "edge",
    "data": {
      "description": "<p>See SWADE p.52</p>",
      "notes": "",
      "isArcaneBackground": false,
      "requirements": {
        "value": "Novice, Spirit d8+"
      }
    }
  },
  {
    "name": "Liquid Courage",
    "type": "edge",
    "data": {
      "description": "<p>See SWADE p.52</p>",
      "notes": "",
      "isArcaneBackground": false,
      "requirements": {
        "value": "Novice, Vigor d8+"
      }
    }
  },
  {
    "name": "Scavenger",
    "type": "edge",
    "data": {
      "description": "<p>See SWADE p.52</p>",
      "notes": "",
      "isArcaneBackground": false,
      "requirements": {
        "value": "Novice, Luck"
      }
    }
  },
  {
    "name": "Followers",
    "type": "edge",
    "data": {
      "description": "<p>See SWADE p.53</p>",
      "notes": "",
      "isArcaneBackground": false,
      "requirements": {
        "value": "Wild Card, Legendary"
      }
    }
  },
  {
    "name": "Professional",
    "type": "edge",
    "data": {
      "description": "<p>See SWADE p.53</p>",
      "notes": "",
      "isArcaneBackground": false,
      "requirements": {
        "value": "Legendary, maximum die type possible in affected Trait"
      }
    }
  },
  {
    "name": "Expert",
    "type": "edge",
    "data": {
      "description": "<p>See SWADE p.53</p>",
      "notes": "",
      "isArcaneBackground": false,
      "requirements": {
        "value": "Legendary, Professional in affected Trait"
      }
    }
  },
  {
    "name": "Master",
    "type": "edge",
    "data": {
      "description": "<p>See SWADE p.53</p>",
      "notes": "",
      "isArcaneBackground": false,
      "requirements": {
        "value": "Wild Card, Legendary, Expert in affected Trait"
      }
    }
  },
  {
    "name": "Sidekick",
    "type": "edge",
    "data": {
      "description": "<p>See SWADE p.53</p>",
      "notes": "",
      "isArcaneBackground": false,
      "requirements": {
        "value": "Wild Card, Legendary"
      }
    }
  },
  {
    "name": "Tough As Nails",
    "type": "edge",
    "data": {
      "description": "<p>See SWADE p.53</p>",
      "notes": "",
      "isArcaneBackground": false,
      "requirements": {
        "value": "Legendary, Vigor d8+"
      }
    }
  },
  {
    "name": "Tougher Than Nails",
    "type": "edge",
    "data": {
      "description": "<p>See SWADE p.53</p>",
      "notes": "",
      "isArcaneBackground": false,
      "requirements": {
        "value": "Legendary, Tough as Nails, Vigor d12+"
      }
    }
  },
  {
    "name": "Weapon Master",
    "type": "edge",
    "data": {
      "description": "<p>See SWADE p.53</p>",
      "notes": "",
      "isArcaneBackground": false,
      "requirements": {
        "value": "Legendary, Fighting d12+"
      }
    }
  },
  {
    "name": "Master of Arms",
    "type": "edge",
    "data": {
      "description": "<p>See SWADE p.53</p>",
      "notes": "",
      "isArcaneBackground": false,
      "requirements": {
        "value": "Legendary, Weapon Master"
      }
    }
  }
]
